Digital-Logic/alutest/simulation/qsim/alutest.msim.vcd
$comment
	File created using the following command:
		vcd file alutest.msim.vcd -direction
$end
$date
	Tue Dec 05 15:57:48 2017
$end
$version
	ModelSim Version 10.1d
$end
$timescale
	1ps
$end
$scope module alutest_vlg_vec_tst $end
$var reg 1 ! CLK_instruction $end
$var reg 1 " CLK_num $end
$var wire 1 # A [3] $end
$var wire 1 $ A [2] $end
$var wire 1 % A [1] $end
$var wire 1 & A [0] $end
$var wire 1 ' B [3] $end
$var wire 1 ( B [2] $end
$var wire 1 ) B [1] $end
$var wire 1 * B [0] $end
$var wire 1 + Carry_out $end
$var wire 1 , s [3] $end
$var wire 1 - s [2] $end
$var wire 1 . s [1] $end
$var wire 1 / s [0] $end
$scope module i1 $end
$var wire 1 0 gnd $end
$var wire 1 1 vcc $end
$var wire 1 2 unknown $end
$var tri1 1 3 devclrn $end
$var tri1 1 4 devpor $end
$var tri1 1 5 devoe $end
$var wire 1 6 Carry_out~output_o $end
$var wire 1 7 A[3]~output_o $end
$var wire 1 8 A[2]~output_o $end
$var wire 1 9 A[1]~output_o $end
$var wire 1 : A[0]~output_o $end
$var wire 1 ; B[3]~output_o $end
$var wire 1 < B[2]~output_o $end
$var wire 1 = B[1]~output_o $end
$var wire 1 > B[0]~output_o $end
$var wire 1 ? s[3]~output_o $end
$var wire 1 @ s[2]~output_o $end
$var wire 1 A s[1]~output_o $end
$var wire 1 B s[0]~output_o $end
$var wire 1 C CLK_num~input_o $end
$var wire 1 D inst1|inst|LPM_COUNTER_component|auto_generated|counter_comb_bita0~combout $end
$var wire 1 E inst1|inst|LPM_COUNTER_component|auto_generated|counter_comb_bita0~COUT $end
$var wire 1 F inst1|inst|LPM_COUNTER_component|auto_generated|counter_comb_bita1~combout $end
$var wire 1 G inst1|inst|LPM_COUNTER_component|auto_generated|counter_comb_bita1~COUT $end
$var wire 1 H inst1|inst|LPM_COUNTER_component|auto_generated|counter_comb_bita2~combout $end
$var wire 1 I inst1|inst|LPM_COUNTER_component|auto_generated|counter_comb_bita2~COUT $end
$var wire 1 J inst1|inst|LPM_COUNTER_component|auto_generated|counter_comb_bita3~combout $end
$var wire 1 K inst1|inst|LPM_COUNTER_component|auto_generated|counter_comb_bita3~COUT $end
$var wire 1 L inst1|inst|LPM_COUNTER_component|auto_generated|counter_comb_bita4~combout $end
$var wire 1 M inst1|inst|LPM_COUNTER_component|auto_generated|counter_comb_bita4~COUT $end
$var wire 1 N inst1|inst|LPM_COUNTER_component|auto_generated|counter_comb_bita5~combout $end
$var wire 1 O CLK_instruction~input_o $end
$var wire 1 P inst|LPM_COUNTER_component|auto_generated|counter_comb_bita0~combout $end
$var wire 1 Q inst|LPM_COUNTER_component|auto_generated|counter_comb_bita0~COUT $end
$var wire 1 R inst|LPM_COUNTER_component|auto_generated|counter_comb_bita1~combout $end
$var wire 1 S inst2|inst1|inst1[1]~0_combout $end
$var wire 1 T inst2|inst1|inst|inst|inst~0_combout $end
$var wire 1 U inst2|inst1|inst|inst1|inst~combout $end
$var wire 1 V inst1|inst|LPM_COUNTER_component|auto_generated|counter_comb_bita5~COUT $end
$var wire 1 W inst1|inst|LPM_COUNTER_component|auto_generated|counter_comb_bita6~combout $end
$var wire 1 X inst2|inst1|inst1[2]~1_combout $end
$var wire 1 Y inst2|inst1|inst|inst2|inst~combout $end
$var wire 1 Z inst1|inst|LPM_COUNTER_component|auto_generated|counter_comb_bita6~COUT $end
$var wire 1 [ inst1|inst|LPM_COUNTER_component|auto_generated|counter_comb_bita7~combout $end
$var wire 1 \ inst2|inst1|inst1[3]~2_combout $end
$var wire 1 ] inst2|inst1|inst|inst3|inst~combout $end
$var wire 1 ^ inst2|inst1|inst|inst3|inst2|AND_INV~0_combout $end
$var wire 1 _ inst2|inst1|inst|inst2|inst2|AND_INV~0_combout $end
$var wire 1 ` inst2|inst1|inst|inst1|inst2|AND_INV~0_combout $end
$var wire 1 a inst2|inst1|inst|inst|inst3|AND_INV~0_combout $end
$var wire 1 b inst1|inst|LPM_COUNTER_component|auto_generated|counter_reg_bit [7] $end
$var wire 1 c inst1|inst|LPM_COUNTER_component|auto_generated|counter_reg_bit [6] $end
$var wire 1 d inst1|inst|LPM_COUNTER_component|auto_generated|counter_reg_bit [5] $end
$var wire 1 e inst1|inst|LPM_COUNTER_component|auto_generated|counter_reg_bit [4] $end
$var wire 1 f inst1|inst|LPM_COUNTER_component|auto_generated|counter_reg_bit [3] $end
$var wire 1 g inst1|inst|LPM_COUNTER_component|auto_generated|counter_reg_bit [2] $end
$var wire 1 h inst1|inst|LPM_COUNTER_component|auto_generated|counter_reg_bit [1] $end
$var wire 1 i inst1|inst|LPM_COUNTER_component|auto_generated|counter_reg_bit [0] $end
$var wire 1 j inst|LPM_COUNTER_component|auto_generated|counter_reg_bit [7] $end
$var wire 1 k inst|LPM_COUNTER_component|auto_generated|counter_reg_bit [6] $end
$var wire 1 l inst|LPM_COUNTER_component|auto_generated|counter_reg_bit [5] $end
$var wire 1 m inst|LPM_COUNTER_component|auto_generated|counter_reg_bit [4] $end
$var wire 1 n inst|LPM_COUNTER_component|auto_generated|counter_reg_bit [3] $end
$var wire 1 o inst|LPM_COUNTER_component|auto_generated|counter_reg_bit [2] $end
$var wire 1 p inst|LPM_COUNTER_component|auto_generated|counter_reg_bit [1] $end
$var wire 1 q inst|LPM_COUNTER_component|auto_generated|counter_reg_bit [0] $end
$upscope $end
$upscope $end
$enddefinitions $end
#0
$dumpvars
0!
0"
0&
0%
0$
0#
0*
0)
0(
0'
0+
0/
0.
0-
0,
00
11
x2
13
14
15
06
07
08
09
0:
0;
0<
0=
0>
0?
0@
0A
0B
0C
1D
0E
0F
1G
0H
0I
0J
1K
0L
0M
0N
0O
1P
0Q
0R
0S
0T
0U
1V
0W
0X
0Y
0Z
0[
0\
0]
0^
0_
0`
0a
0i
0h
0g
0f
0e
0d
0c
0b
0q
0p
zo
zn
zm
zl
zk
zj
$end
#5000
1"
1C
1i
1E
0D
1>
1*
1a
1F
1B
1/
#10000
0"
0C
#15000
1"
1C
1h
0i
1S
0G
0F
0E
1D
1=
0>
1)
0*
0a
1H
1G
1F
0B
0/
1`
0H
1A
1.
#20000
0"
0C
#25000
1"
1C
1i
1E
0D
1>
1*
1a
0G
0F
1B
1/
1H
#30000
0"
0C
#35000
1"
1C
1g
0h
0i
1X
1I
0H
0S
1G
1F
0E
1D
1<
0=
0>
1(
0)
0*
0a
1J
0I
1H
0F
0B
0/
1_
0`
0J
1@
0A
1-
0.
#40000
0"
0C
#45000
1"
1C
1i
1E
0D
1>
1*
1a
1F
1B
1/
#50000
0"
0C
#55000
1"
1C
1h
0i
1S
0G
0F
0E
1D
1=
0>
1)
0*
0a
1I
0H
1G
1F
0B
0/
1`
1J
0I
1H
1A
1.
0J
#60000
0"
0C
#65000
1"
1C
1i
1E
0D
1>
1*
1a
0G
0F
1B
1/
1I
0H
1J
#70000
0"
0C
#75000
1"
1C
1f
0g
0h
0i
1\
0K
0J
0X
0I
1H
0S
1G
1F
0E
1D
1;
0<
0=
0>
1'
0(
0)
0*
0a
1L
1K
1J
0H
0F
0B
0/
1^
0_
0`
0L
1?
0@
0A
1,
0-
0.
#80000
0"
0C
#85000
1"
1C
1i
1E
0D
1>
1*
1a
1F
1B
1/
#90000
0"
0C
#95000
1"
1C
1h
0i
1S
0G
0F
0E
1D
1=
0>
1)
0*
0a
1H
1G
1F
0B
0/
1`
0H
1A
1.
#100000
0"
0C
#105000
1"
1C
1i
1E
0D
1>
1*
1a
0G
0F
1B
1/
1H
#110000
0"
0C
#115000
1"
1C
1g
0h
0i
1X
1I
0H
0S
1G
1F
0E
1D
1<
0=
0>
1(
0)
0*
0a
0K
0J
0I
1H
0F
0B
0/
1_
0`
1L
1K
1J
1@
0A
1-
0.
0L
#120000
0"
0C
#125000
1"
1C
1i
1E
0D
1>
1*
1a
1F
1B
1/
#130000
0"
0C
#135000
1"
1C
1h
0i
1S
0G
0F
0E
1D
1=
0>
1)
0*
0a
1I
0H
1G
1F
0B
0/
1`
0K
0J
0I
1H
1A
1.
1L
1K
1J
0L
#140000
0"
0C
#145000
1"
1C
1i
1E
0D
1>
1*
1a
0G
0F
1B
1/
1I
0H
0K
0J
1L
#150000
0"
0C
#155000
1"
1C
1e
0f
0g
0h
0i
1M
0L
0\
1K
1J
0X
0I
1H
0S
1G
1F
0E
1D
1:
0;
0<
0=
0>
1&
0'
0(
0)
0*
1N
0M
1L
0J
0H
0F
0^
0_
0`
0N
0?
0@
0A
0,
0-
0.
#160000
0"
0C
#165000
1"
1C
1i
1T
1E
0D
1>
1*
0a
1F
0B
0/
1`
1A
1.
#170000
0"
0C
#175000
1"
1C
1h
0i
1S
0G
0F
0T
0E
1D
1=
0>
1)
0*
1a
1H
1G
1F
1B
1/
0H
#180000
0"
0C
#185000
1"
1C
1i
1T
1E
0D
1>
1*
0a
1U
0G
0F
0B
0/
0`
1H
0A
0.
1_
1@
1-
#190000
0"
0C
#195000
1"
1C
1g
0h
0i
1X
1I
0H
0S
1G
1F
0T
0E
1D
1<
0=
0>
1(
0)
0*
1a
1Y
1J
0U
0I
1H
0F
1B
1/
0_
0Y
0J
0@
0-
1^
1_
1?
1@
1,
1-
0^
0?
0,
#200000
0"
0C
#205000
1"
1C
1i
1T
1E
0D
1>
1*
0a
1F
0B
0/
1`
1A
1.
#210000
0"
0C
#215000
1"
1C
1h
0i
1S
0G
0F
0T
0E
1D
1=
0>
1)
0*
1a
1I
0H
1G
1F
1B
1/
1J
0I
1H
0J
#220000
0"
0C
#225000
1"
1C
1i
1T
1E
0D
1>
1*
0a
1U
0G
0F
0B
0/
0`
1Y
1I
0H
0A
0.
0_
1J
0@
0-
1^
1?
1,
#230000
0"
0C
#235000
1"
1C
1f
0g
0h
0i
1\
0K
0J
0X
0I
1H
0S
1G
1F
0T
0E
1D
1;
0<
0=
0>
1'
0(
0)
0*
1a
1M
0L
0Y
1K
1J
0U
0H
0F
1B
1/
0^
1]
1_
1N
0M
1L
0?
16
1@
0,
1+
1-
1^
0]
0_
0N
1?
06
0@
1,
0+
0-
#240000
0"
0C
#245000
1"
1C
1i
1T
1E
0D
1>
1*
0a
1F
0B
0/
1`
1A
1.
#250000
0"
0C
#255000
1"
1C
1h
0i
1S
0G
0F
0T
0E
1D
1=
0>
1)
0*
1a
1H
1G
1F
1B
1/
0H
#260000
0"
0C
#265000
1"
1C
1i
1T
1E
0D
1>
1*
0a
1U
0G
0F
0B
0/
0`
1H
0A
0.
1_
1@
1-
#270000
0"
0C
#275000
1"
1C
1g
0h
0i
1X
1I
0H
0S
1G
1F
0T
0E
1D
1<
0=
0>
1(
0)
0*
1a
1Y
0K
0J
0U
0I
1H
0F
1B
1/
0_
1M
0L
0Y
1K
1J
0@
0-
0^
1]
1_
1N
0M
1L
0?
16
1@
0,
1+
1-
1^
0]
0N
1?
06
1,
0+
#280000
0"
0C
#285000
1"
1C
1i
1T
1E
0D
1>
1*
0a
1F
0B
0/
1`
1A
1.
#290000
0"
0C
#295000
1"
1C
1h
0i
1S
0G
0F
0T
0E
1D
1=
0>
1)
0*
1a
1I
0H
1G
1F
1B
1/
0K
0J
0I
1H
1M
0L
1K
1J
1N
0M
1L
0N
#300000
0"
0C
#305000
1"
1C
1i
1T
1E
0D
1>
1*
0a
1U
0G
0F
0B
0/
0`
1Y
1I
0H
0A
0.
0_
0K
0J
0@
0-
0^
1]
1M
0L
0?
16
0,
1+
1N
#310000
0"
0C
#315000
1"
1C
1d
0e
0f
0g
0h
0i
0V
0N
0T
0M
1L
0\
1K
1J
0X
0I
1H
0S
1G
1F
0E
1D
19
0:
0;
0<
0=
0>
1%
0&
0'
0(
0)
0*
1`
1W
0U
1V
1N
0L
0Y
0J
0H
0F
1A
1.
1^
0]
1_
0W
1?
06
1@
1,
0+
1-
0_
0^
0@
0?
0-
0,
#320000
0"
0C
#325000
1"
1C
1i
1E
0D
1>
1*
1a
1F
1B
1/
#330000
0"
0C
#335000
1"
1C
1h
0i
1S
0G
0F
0E
1D
1=
0>
1)
0*
0a
1U
1H
1G
1F
0B
0/
0`
0H
0A
0.
1_
1@
1-
#340000
0"
0C
#345000
1"
1C
1i
1E
0D
1>
1*
1a
0G
0F
1B
1/
1H
#350000
0"
0C
#355000
1"
1C
1g
0h
0i
1X
1I
0H
0S
1G
1F
0E
1D
1<
0=
0>
1(
0)
0*
0a
1Y
1J
0U
0I
1H
0F
0B
0/
0_
1`
0Y
0J
0@
1A
0-
1.
1^
1_
1?
1@
1,
1-
0^
0?
0,
#360000
0"
0C
#365000
1"
1C
1i
1E
0D
1>
1*
1a
1F
1B
1/
#370000
0"
0C
#375000
1"
1C
1h
0i
1S
0G
0F
0E
1D
1=
0>
1)
0*
0a
1U
1I
0H
1G
1F
0B
0/
0`
1Y
1J
0I
1H
0A
0.
0_
0J
0@
0-
1^
1?
1,
#380000
0"
0C
#385000
1"
1C
1i
1E
0D
1>
1*
1a
0G
0F
1B
1/
1I
0H
1J
#390000
0"
0C
#395000
1"
1C
1f
0g
0h
0i
1\
0K
0J
0X
0I
1H
0S
1G
1F
0E
1D
1;
0<
0=
0>
1'
0(
0)
0*
0a
1L
0Y
1K
1J
0U
0H
0F
0B
0/
0^
1]
1_
1`
0L
0?
16
1@
1A
0,
1+
1-
1.
1^
0]
0_
1?
06
0@
1,
0+
0-
#400000
0"
0C
#405000
1"
1C
1i
1E
0D
1>
1*
1a
1F
1B
1/
#410000
0"
0C
#415000
1"
1C
1h
0i
1S
0G
0F
0E
1D
1=
0>
1)
0*
0a
1U
1H
1G
1F
0B
0/
0`
0H
0A
0.
1_
1@
1-
#420000
0"
0C
#425000
1"
1C
1i
1E
0D
1>
1*
1a
0G
0F
1B
1/
1H
#430000
0"
0C
#435000
1"
1C
1g
0h
0i
1X
1I
0H
0S
1G
1F
0E
1D
1<
0=
0>
1(
0)
0*
0a
1Y
0K
0J
0U
0I
1H
0F
0B
0/
0_
1`
1L
0Y
1K
1J
0@
1A
0-
1.
0^
1]
1_
0L
0?
16
1@
0,
1+
1-
1^
0]
1?
06
1,
0+
#440000
0"
0C
#445000
1"
1C
1i
1E
0D
1>
1*
1a
1F
1B
1/
#450000
0"
0C
#455000
1"
1C
1h
0i
1S
0G
0F
0E
1D
1=
0>
1)
0*
0a
1U
1I
0H
1G
1F
0B
0/
0`
1Y
0K
0J
0I
1H
0A
0.
0_
1L
1K
1J
0@
0-
0^
1]
0L
0?
16
0,
1+
#460000
0"
0C
#465000
1"
1C
1i
1E
0D
1>
1*
1a
0G
0F
1B
1/
1I
0H
0K
0J
1L
#470000
0"
0C
#475000
1"
1C
1e
0f
0g
0h
0i
1M
0L
0\
1K
1J
0X
0I
1H
0S
1G
1F
0E
1D
1:
0;
0<
0=
0>
1&
0'
0(
0)
0*
0V
0N
0M
1L
0Y
0J
0U
0H
0F
1^
0]
1_
1`
1W
1V
1N
1?
06
1@
1A
1,
0+
1-
1.
0^
0_
0W
0?
0@
0,
0-
#480000
0"
0C
#485000
1"
1C
1i
1T
1E
0D
1>
1*
0a
1U
1F
0B
0/
0`
0A
0.
1_
1@
1-
#490000
0"
0C
#495000
1"
1C
1h
0i
1S
0G
0F
0T
0E
1D
1=
0>
1)
0*
1a
1H
1G
1F
1B
1/
0H
#500000
0"
0C
#505000
1"
1C
1i
1T
1E
0D
1>
1*
0a
0G
0F
0B
0/
1`
1H
1A
1.
#510000
0"
0C
#515000
1"
1C
1g
0h
0i
1X
1I
0H
0S
1G
1F
0T
0E
1D
1<
0=
0>
1(
0)
0*
1a
1Y
1J
0U
0I
1H
0F
1B
1/
0_
0Y
0J
0@
0-
1^
1_
1?
1@
1,
1-
0^
0?
0,
#520000
0"
0C
#525000
1"
1C
1i
1T
1E
0D
1>
1*
0a
1U
1F
0B
0/
0`
1Y
0A
0.
0_
0@
0-
1^
1?
1,
#530000
0"
0C
#535000
1"
1C
1h
0i
1S
0G
0F
0T
0E
1D
1=
0>
1)
0*
1a
1I
0H
1G
1F
1B
1/
1J
0I
1H
0J
#540000
0"
0C
#545000
1"
1C
1i
1T
1E
0D
1>
1*
0a
0G
0F
0B
0/
1`
1I
0H
1A
1.
1J
#550000
0"
0C
#555000
1"
1C
1f
0g
0h
0i
1\
0K
0J
0X
0I
1H
0S
1G
1F
0T
0E
1D
1;
0<
0=
0>
1'
0(
0)
0*
1a
1M
0L
0Y
1K
1J
0U
0H
0F
1B
1/
0^
1]
1_
0V
0N
0M
1L
0?
16
1@
0,
1+
1-
1^
0]
0_
1W
1V
1N
1?
06
0@
1,
0+
0-
0W
#560000
0"
0C
#565000
1"
1C
1i
1T
1E
0D
1>
1*
0a
1U
1F
0B
0/
0`
0A
0.
1_
1@
1-
#570000
0"
0C
#575000
1"
1C
1h
0i
1S
0G
0F
0T
0E
1D
1=
0>
1)
0*
1a
1H
1G
1F
1B
1/
0H
#580000
0"
0C
#585000
1"
1C
1i
1T
1E
0D
1>
1*
0a
0G
0F
0B
0/
1`
1H
1A
1.
#590000
0"
0C
#595000
1"
1C
1g
0h
0i
1X
1I
0H
0S
1G
1F
0T
0E
1D
1<
0=
0>
1(
0)
0*
1a
1Y
0K
0J
0U
0I
1H
0F
1B
1/
0_
1M
0L
0Y
1K
1J
0@
0-
0^
1]
1_
0V
0N
0M
1L
0?
16
1@
0,
1+
1-
1^
0]
1W
1V
1N
1?
06
1,
0+
0W
#600000
0"
0C
#605000
1"
1C
1i
1T
1E
0D
1>
1*
0a
1U
1F
0B
0/
0`
1Y
0A
0.
0_
0@
0-
0^
1]
0?
16
0,
1+
#610000
0"
0C
#615000
1"
1C
1h
0i
1S
0G
0F
0T
0E
1D
1=
0>
1)
0*
1a
1I
0H
1G
1F
1B
1/
0K
0J
0I
1H
1M
0L
1K
1J
0V
0N
0M
1L
1W
1V
1N
0W
#620000
0"
0C
#625000
1"
1C
1i
1T
1E
0D
1>
1*
0a
0G
0F
0B
0/
1`
1I
0H
1A
1.
0K
0J
1M
0L
0V
0N
1W
#630000
0"
0C
#635000
1"
1C
1c
0d
0e
0f
0g
0h
0i
1Z
0W
1V
1N
0T
0M
1L
0\
1K
1J
0X
0I
1H
0S
1G
1F
0E
1D
18
09
0:
0;
0<
0=
0>
1$
0%
0&
0'
0(
0)
0*
1_
0`
1[
0Z
1W
0U
0N
0L
0J
0H
0F
1@
0A
1-
0.
1^
0]
0_
0[
0Y
1?
06
0@
1,
0+
0-
1_
1@
1-
0^
0?
0,
#640000
0"
0C
#645000
1"
1C
1i
1E
0D
1>
1*
1a
1F
1B
1/
#650000
0"
0C
#655000
1"
1C
1h
0i
1S
0G
0F
0E
1D
1=
0>
1)
0*
0a
1H
1G
1F
0B
0/
1`
0H
1A
1.
#660000
0"
0C
#665000
1"
1C
1i
1E
0D
1>
1*
1a
0G
0F
1B
1/
1H
#670000
0"
0C
#675000
1"
1C
1g
0h
0i
1X
1I
0H
0S
1G
1F
0E
1D
1<
0=
0>
1(
0)
0*
0a
1Y
1J
0I
1H
0F
0B
0/
0_
0`
0J
0@
0A
0-
0.
1^
1?
1,
#680000
0"
0C
#685000
1"
1C
1i
1E
0D
1>
1*
1a
1F
1B
1/
#690000
0"
0C
#695000
1"
1C
1h
0i
1S
0G
0F
0E
1D
1=
0>
1)
0*
0a
1I
0H
1G
1F
0B
0/
1`
1J
0I
1H
1A
1.
0J
#700000
0"
0C
#705000
1"
1C
1i
1E
0D
1>
1*
1a
0G
0F
1B
1/
1I
0H
1J
#710000
0"
0C
#715000
1"
1C
1f
0g
0h
0i
1\
0K
0J
0X
0I
1H
0S
1G
1F
0E
1D
1;
0<
0=
0>
1'
0(
0)
0*
0a
1L
0Y
1K
1J
0H
0F
0B
0/
0^
1]
1_
0`
0L
0?
16
1@
0A
0,
1+
1-
0.
1^
0]
1?
06
1,
0+
#720000
0"
0C
#725000
1"
1C
1i
1E
0D
1>
1*
1a
1F
1B
1/
#730000
0"
0C
#735000
1"
1C
1h
0i
1S
0G
0F
0E
1D
1=
0>
1)
0*
0a
1H
1G
1F
0B
0/
1`
0H
1A
1.
#740000
0"
0C
#745000
1"
1C
1i
1E
0D
1>
1*
1a
0G
0F
1B
1/
1H
#750000
0"
0C
#755000
1"
1C
1g
0h
0i
1X
1I
0H
0S
1G
1F
0E
1D
1<
0=
0>
1(
0)
0*
0a
1Y
0K
0J
0I
1H
0F
0B
0/
0_
0`
1L
1K
1J
0@
0A
0-
0.
0^
1]
0L
0?
16
0,
1+
#760000
0"
0C
#765000
1"
1C
1i
1E
0D
1>
1*
1a
1F
1B
1/
#770000
0"
0C
#775000
1"
1C
1h
0i
1S
0G
0F
0E
1D
1=
0>
1)
0*
0a
1I
0H
1G
1F
0B
0/
1`
0K
0J
0I
1H
1A
1.
1L
1K
1J
0L
#780000
0"
0C
#785000
1"
1C
1i
1E
0D
1>
1*
1a
0G
0F
1B
1/
1I
0H
0K
0J
1L
#790000
0"
0C
#795000
1"
1C
1e
0f
0g
0h
0i
1M
0L
0\
1K
1J
0X
0I
1H
0S
1G
1F
0E
1D
1:
0;
0<
0=
0>
1&
0'
0(
0)
0*
1N
0M
1L
0Y
0J
0H
0F
1^
0]
1_
0`
0N
1?
06
1@
0A
1,
0+
1-
0.
0^
0?
0,
#800000
0"
0C
#805000
1"
1C
1i
1T
1E
0D
1>
1*
0a
1F
0B
0/
1`
1A
1.
#810000
0"
0C
#815000
1"
1C
1h
0i
1S
0G
0F
0T
0E
1D
1=
0>
1)
0*
1a
1H
1G
1F
1B
1/
0H
#820000
0"
0C
#825000
1"
1C
1i
1T
1E
0D
1>
1*
0a
1U
0G
0F
0B
0/
0`
1Y
1H
0A
0.
0_
0@
0-
1^
1?
1,
#830000
0"
0C
#835000
1"
1C
1g
0h
0i
1X
1I
0H
0S
1G
1F
0T
0E
1D
1<
0=
0>
1(
0)
0*
1a
1J
0U
0I
1H
0F
1B
1/
1_
0J
1@
1-
0_
0@
0-
#840000
0"
0C
#845000
1"
1C
1i
1T
1E
0D
1>
1*
0a
1F
0B
0/
1`
1A
1.
#850000
0"
0C
#855000
1"
1C
1h
0i
1S
0G
0F
0T
0E
1D
1=
0>
1)
0*
1a
1I
0H
1G
1F
1B
1/
1J
0I
1H
0J
#860000
0"
0C
#865000
1"
1C
1i
1T
1E
0D
1>
1*
0a
1U
0G
0F
0B
0/
0`
1I
0H
0A
0.
1_
1J
1@
1-
#870000
0"
0C
#875000
1"
1C
1f
0g
0h
0i
1\
0K
0J
0X
0I
1H
0S
1G
1F
0T
0E
1D
1;
0<
0=
0>
1'
0(
0)
0*
1a
1M
0L
1K
1J
0U
0H
0F
1B
1/
0^
1]
0_
1N
0M
1L
0Y
0?
16
0@
0,
1+
0-
1_
0N
1@
1-
1^
0]
1?
06
1,
0+
#880000
0"
0C
#885000
1"
1C
1i
1T
1E
0D
1>
1*
0a
1F
0B
0/
1`
1A
1.
#890000
0"
0C
#895000
1"
1C
1h
0i
1S
0G
0F
0T
0E
1D
1=
0>
1)
0*
1a
1H
1G
1F
1B
1/
0H
#900000
0"
0C
#905000
1"
1C
1i
1T
1E
0D
1>
1*
0a
1U
0G
0F
0B
0/
0`
1Y
1H
0A
0.
0_
0@
0-
0^
1]
0?
16
0,
1+
#910000
0"
0C
#915000
1"
1C
1g
0h
0i
1X
1I
0H
0S
1G
1F
0T
0E
1D
1<
0=
0>
1(
0)
0*
1a
0K
0J
0U
0I
1H
0F
1B
1/
1_
1M
0L
1K
1J
1@
1-
0_
1N
0M
1L
0@
0-
0N
#920000
0"
0C
#925000
1"
1C
1i
1T
1E
0D
1>
1*
0a
1F
0B
0/
1`
1A
1.
#930000
0"
0C
#935000
1"
1C
1h
0i
1S
0G
0F
0T
0E
1D
1=
0>
1)
0*
1a
1I
0H
1G
1F
1B
1/
0K
0J
0I
1H
1M
0L
1K
1J
1N
0M
1L
0N
#940000
0"
0C
#945000
1"
1C
1i
1T
1E
0D
1>
1*
0a
1U
0G
0F
0B
0/
0`
1I
0H
0A
0.
1_
0K
0J
1@
1-
1M
0L
1N
#950000
0"
0C
#955000
1"
1C
1d
0e
0f
0g
0h
0i
0V
0N
0T
0M
1L
0\
1K
1J
0X
0I
1H
0S
1G
1F
0E
1D
19
0:
0;
0<
0=
0>
1%
0&
0'
0(
0)
0*
1`
1Z
0W
0U
1V
1N
0L
0J
0H
0F
1A
1.
1^
0]
0_
1[
0Y
0Z
1W
1?
06
0@
1,
0+
0-
1_
0[
1@
1-
0^
0?
0,
#960000
0"
0C
#965000
1"
1C
1i
1E
0D
1>
1*
1a
1F
1B
1/
#970000
0"
0C
#975000
1"
1C
1h
0i
1S
0G
0F
0E
1D
1=
0>
1)
0*
0a
1U
1H
1G
1F
0B
0/
0`
1Y
0H
0A
0.
0_
0@
0-
1^
1?
1,
#980000
0"
0C
#985000
1"
1C
1i
1E
0D
1>
1*
1a
0G
0F
1B
1/
1H
#990000
0"
0C
#995000
1"
1C
1g
0h
0i
1X
1I
0H
0S
1G
1F
0E
1D
1<
0=
0>
1(
0)
0*
0a
1J
0U
0I
1H
0F
0B
0/
1_
1`
0J
1@
1A
1-
1.
0_
0@
0-
#1000000
0"
0C
#1005000
1"
1C
1i
1E
0D
1>
1*
1a
1F
1B
1/
#1010000
0"
0C
#1015000
1"
1C
1h
0i
1S
0G
0F
0E
1D
1=
0>
1)
0*
0a
1U
1I
0H
1G
1F
0B
0/
0`
1J
0I
1H
0A
0.
1_
0J
1@
1-
#1020000
0"
0C
#1025000
1"
1C
1i
1E
0D
1>
1*
1a
0G
0F
1B
1/
1I
0H
1J
#1030000
0"
0C
#1035000
1"
1C
1f
0g
0h
0i
1\
0K
0J
0X
0I
1H
0S
1G
1F
0E
1D
1;
0<
0=
0>
1'
0(
0)
0*
0a
1L
1K
1J
0U
0H
0F
0B
0/
0^
1]
0_
1`
0L
0Y
0?
16
0@
1A
0,
1+
0-
1.
1_
1@
1-
1^
0]
1?
06
1,
0+
#1040000
0"
0C
#1045000
1"
1C
1i
1E
0D
1>
1*
1a
1F
1B
1/
#1050000
0"
0C
#1055000
1"
1C
1h
0i
1S
0G
0F
0E
1D
1=
0>
1)
0*
0a
1U
1H
1G
1F
0B
0/
0`
1Y
0H
0A
0.
0_
0@
0-
0^
1]
0?
16
0,
1+
#1060000
0"
0C
#1065000
1"
1C
1i
1E
0D
1>
1*
1a
0G
0F
1B
1/
1H
#1070000
0"
0C
#1075000
1"
1C
1g
0h
0i
1X
1I
0H
0S
1G
1F
0E
1D
1<
0=
0>
1(
0)
0*
0a
0K
0J
0U
0I
1H
0F
0B
0/
1_
1`
1L
1K
1J
1@
1A
1-
1.
0_
0L
0@
0-
#1080000
0"
0C
#1085000
1"
1C
1i
1E
0D
1>
1*
1a
1F
1B
1/
#1090000
0"
0C
#1095000
1"
1C
1h
0i
1S
0G
0F
0E
1D
1=
0>
1)
0*
0a
1U
1I
0H
1G
1F
0B
0/
0`
0K
0J
0I
1H
0A
0.
1_
1L
1K
1J
1@
1-
0L
#1100000
0"
0C
#1105000
1"
1C
1i
1E
0D
1>
1*
1a
0G
0F
1B
1/
1I
0H
0K
0J
1L
#1110000
0"
0C
#1115000
1"
1C
1e
0f
0g
0h
0i
1M
0L
0\
1K
1J
0X
0I
1H
0S
1G
1F
0E
1D
1:
0;
0<
0=
0>
1&
0'
0(
0)
0*
0V
0N
0M
1L
0J
0U
0H
0F
1^
0]
0_
1`
1Z
0W
1V
1N
0Y
1?
06
0@
1A
1,
0+
0-
1.
1_
1[
0Z
1W
1@
1-
0^
0[
0?
0,
#1120000
0"
0C
#1125000
1"
1C
1i
1T
1E
0D
1>
1*
0a
1U
1F
0B
0/
0`
1Y
0A
0.
0_
0@
0-
1^
1?
1,
#1130000
0"
0C
#1135000
1"
1C
1h
0i
1S
0G
0F
0T
0E
1D
1=
0>
1)
0*
1a
1H
1G
1F
1B
1/
0H
#1140000
0"
0C
#1145000
1"
1C
1i
1T
1E
0D
1>
1*
0a
0G
0F
0B
0/
1`
1H
1A
1.
#1150000
0"
0C
#1155000
1"
1C
1g
0h
0i
1X
1I
0H
0S
1G
1F
0T
0E
1D
1<
0=
0>
1(
0)
0*
1a
1J
0U
0I
1H
0F
1B
1/
1_
0J
1@
1-
0_
0@
0-
#1160000
0"
0C
#1165000
1"
1C
1i
1T
1E
0D
1>
1*
0a
1U
1F
0B
0/
0`
0A
0.
1_
1@
1-
#1170000
0"
0C
#1175000
1"
1C
1h
0i
1S
0G
0F
0T
0E
1D
1=
0>
1)
0*
1a
1I
0H
1G
1F
1B
1/
1J
0I
1H
0J
#1180000
0"
0C
#1185000
1"
1C
1i
1T
1E
0D
1>
1*
0a
0G
0F
0B
0/
1`
1I
0H
1A
1.
1J
#1190000
0"
0C
#1195000
1"
1C
1f
0g
0h
0i
1\
0K
0J
0X
0I
1H
0S
1G
1F
0T
0E
1D
1;
0<
0=
0>
1'
0(
0)
0*
1a
1M
0L
1K
1J
0U
0H
0F
1B
1/
0^
1]
0_
0V
0N
0M
1L
0Y
0?
16
0@
0,
1+
0-
1_
1Z
0W
1V
1N
1@
1-
1^
0]
1[
0Z
1W
1?
06
1,
0+
0[
#1200000
0"
0C
#1205000
1"
1C
1i
1T
1E
0D
1>
1*
0a
1U
1F
0B
0/
0`
1Y
0A
0.
0_
0@
0-
0^
1]
0?
16
0,
1+
#1210000
0"
0C
#1215000
1"
1C
1h
0i
1S
0G
0F
0T
0E
1D
1=
0>
1)
0*
1a
1H
1G
1F
1B
1/
0H
#1220000
0"
0C
#1225000
1"
1C
1i
1T
1E
0D
1>
1*
0a
0G
0F
0B
0/
1`
1H
1A
1.
#1230000
0"
0C
